OP/quadratic/ALL0021/F0021CH1.CSV

Record Length,2.500000e+03,,   0.000000000000,   0.00000,
Sample Interval,4.000000e-02,,   0.040000000000,   0.00000,
Trigger Point,0.000000000000e+00,,   0.080000000000,   0.00800,
,,,   0.120000000000,   0.00000,
,,,   0.160000000000,   0.00800,
,,,   0.200000000000,   0.00800,
Source,CH1,,   0.240000000000,   0.00800,
Vertical Units,V,,   0.280000000000,   0.00000,
Vertical Scale,2.000000e-01,,   0.320000000000,   0.00000,
Vertical Offset,-5.200000e-01,,   0.360000000000,   0.00000,
Horizontal Units,s,,   0.400000000000,   0.00000,
Horizontal Scale,1.000000e+01,,   0.440000000000,   0.00000,
Pt Fmt,Y,,   0.480000000000,   0.00800,
Yzero,0.000000e+00,,   0.520000000000,   0.00800,
Probe Atten,1.000000e+00,,   0.560000000000,   0.00000,
Model Number,TDS2012C,,   0.600000000000,   0.00000,
Serial Number,C018359,,   0.640000000000,   0.00000,
Firmware Version,FV:v24.17,,   0.680000000000,   0.00000,
,,,0.720000000000,   0.01600,
,,,0.760000000000,   0.00800,
,,,0.800000000000,   0.00800,
,,,0.840000000000,   0.00800,
,,,0.880000000000,   0.00800,
,,,0.920000000000,   0.01600,
,,,0.960000000000,   0.00800,
,,,1.000000000000,   0.00800,
,,,1.040000000000,   0.00800,
,,,1.080000000000,   0.01600,
,,,1.120000000000,   0.00800,
,,,1.160000000000,   0.00800,
,,,1.200000000000,   0.00800,
,,,1.240000000000,   0.00800,
,,,1.280000000000,   0.00800,
,,,1.320000000000,   0.00800,
,,,1.360000000000,   0.01600,
,,,1.400000000000,   0.01600,
,,,1.440000000000,   0.00800,
,,,1.480000000000,   0.00800,
,,,1.520000000000,   0.01600,
,,,1.560000000000,   0.00800,
,,,1.600000000000,   0.00800,
,,,1.640000000000,   0.01600,
,,,1.680000000000,   0.00800,
,,,1.720000000000,   0.01600,
,,,1.760000000000,   0.00800,
,,,1.800000000000,   0.00800,
,,,1.840000000000,   0.01600,
,,,1.880000000000,   0.01600,
,,,1.920000000000,   0.01600,
,,,1.960000000000,   0.01600,
,,,2.000000000000,   0.00800,
,,,2.040000000000,   0.01600,
,,,2.080000000000,   0.00800,
,,,2.120000000000,   0.01600,
,,,2.160000000000,   0.01600,
,,,2.200000000000,   0.01600,
,,,2.240000000000,   0.01600,
,,,2.280000000000,   0.01600,
,,,2.320000000000,   0.01600,
,,,2.360000000000,   0.01600,
,,,2.400000000000,   0.00800,
,,,2.440000000000,   0.00800,
,,,2.480000000000,   0.01600,
,,,2.520000000000,   0.01600,
,,,2.560000000000,   0.02400,
,,,2.600000000000,   0.01600,
,,,2.640000000000,   0.00800,
,,,2.680000000000,   0.01600,
,,,2.720000000000,   0.01600,
,,,2.760000000000,   0.02400,
,,,2.800000000000,   0.02400,
,,,2.840000000000,   0.01600,
,,,2.880000000000,   0.01600,
,,,2.920000000000,   0.02400,
,,,2.960000000000,   0.02400,
,,,3.000000000000,   0.01600,
,,,3.040000000000,   0.01600,
,,,3.080000000000,   0.02400,
,,,3.120000000000,   0.01600,
,,,3.160000000000,   0.01600,
,,,3.200000000000,   0.01600,
,,,3.240000000000,   0.02400,
,,,3.280000000000,   0.02400,
,,,3.320000000000,   0.02400,
,,,3.360000000000,   0.02400,
,,,3.400000000000,   0.01600,
,,,3.440000000000,   0.02400,
,,,3.480000000000,   0.01600,
,,,3.520000000000,   0.01600,
,,,3.560000000000,   0.02400,
,,,3.600000000000,   0.02400,
,,,3.640000000000,   0.02400,
,,,3.680000000000,   0.02400,
,,,3.720000000000,   0.02400,
,,,3.760000000000,   0.02400,
,,,3.800000000000,   0.02400,
,,,3.840000000000,   0.02400,
,,,3.880000000000,   0.02400,
,,,3.920000000000,   0.02400,
,,,3.960000000000,   0.02400,
,,,4.000000000000,   0.02400,
,,,4.040000000000,   0.02400,
,,,4.080000000000,   0.02400,
,,,4.120000000000,   0.02400,
,,,4.160000000000,   0.02400,
,,,4.200000000000,   0.02400,
,,,4.240000000000,   0.02400,
,,,4.280000000000,   0.02400,
,,,4.320000000000,   0.02400,
,,,4.360000000000,   0.03200,
,,,4.400000000000,   0.02400,
,,,4.440000000000,   0.03200,
,,,4.480000000000,   0.02400,
,,,4.520000000000,   0.03200,
,,,4.560000000000,   0.03200,
,,,4.600000000000,   0.02400,
,,,4.640000000000,   0.02400,
,,,4.680000000000,   0.03200,
,,,4.720000000000,   0.03200,
,,,4.760000000000,   0.02400,
,,,4.800000000000,   0.03200,
,,,4.840000000000,   0.02400,
,,,4.880000000000,   0.02400,
,,,4.920000000000,   0.02400,
,,,4.960000000000,   0.02400,
,,,5.000000000000,   0.03200,
,,,5.040000000000,   0.03200,
,,,5.080000000000,   0.03200,
,,,5.120000000000,   0.02400,
,,,5.160000000000,   0.02400,
,,,5.200000000000,   0.03200,
,,,5.240000000000,   0.02400,
,,,5.280000000000,   0.03200,
,,,5.320000000000,   0.03200,
,,,5.360000000000,   0.03200,
,,,5.400000000000,   0.03200,
,,,5.440000000000,   0.02400,
,,,5.480000000000,   0.02400,
,,,5.520000000000,   0.02400,
,,,5.560000000000,   0.04000,
,,,5.600000000000,   0.03200,
,,,5.640000000000,   0.03200,
,,,5.680000000000,   0.03200,
,,,5.720000000000,   0.03200,
,,,5.760000000000,   0.03200,
,,,5.800000000000,   0.02400,
,,,5.840000000000,   0.03200,
,,,5.880000000000,   0.03200,
,,,5.920000000000,   0.03200,
,,,5.960000000000,   0.03200,
,,,6.000000000000,   0.03200,
,,,6.040000000000,   0.04000,
,,,6.080000000000,   0.03200,
,,,6.120000000000,   0.04000,
,,,6.160000000000,   0.03200,
,,,6.200000000000,   0.03200,
,,,6.240000000000,   0.04000,
,,,6.280000000000,   0.03200,
,,,6.320000000000,   0.03200,
,,,6.360000000000,   0.03200,
,,,6.400000000000,   0.03200,
,,,6.440000000000,   0.04000,
,,,6.480000000000,   0.03200,
,,,6.520000000000,   0.04000,
,,,6.560000000000,   0.03200,
,,,6.600000000000,   0.03200,
,,,6.640000000000,   0.04000,
,,,6.680000000000,   0.03200,
,,,6.720000000000,   0.04000,
,,,6.760000000000,   0.04000,
,,,6.800000000000,   0.03200,
,,,6.840000000000,   0.03200,
,,,6.880000000000,   0.04000,
,,,6.920000000000,   0.04000,
,,,6.960000000000,   0.03200,
,,,7.000000000000,   0.04800,
,,,7.040000000000,   0.04000,
,,,7.080000000000,   0.04000,
,,,7.120000000000,   0.03200,
,,,7.160000000000,   0.04000,
,,,7.200000000000,   0.04800,
,,,7.240000000000,   0.04800,
,,,7.280000000000,   0.04000,
,,,7.320000000000,   0.04000,
,,,7.360000000000,   0.04000,
,,,7.400000000000,   0.04000,
,,,7.440000000000,   0.04000,
,,,7.480000000000,   0.04000,
,,,7.520000000000,   0.04000,
,,,7.560000000000,   0.04000,
,,,7.600000000000,   0.03200,
,,,7.640000000000,   0.04800,
,,,7.680000000000,   0.04000,
,,,7.720000000000,   0.04800,
,,,7.760000000000,   0.04800,
,,,7.800000000000,   0.04000,
,,,7.840000000000,   0.04800,
,,,7.880000000000,   0.04000,
,,,7.920000000000,   0.04000,
,,,7.960000000000,   0.04800,
,,,8.000000000000,   0.04800,
,,,8.040000000000,   0.04800,
,,,8.080000000000,   0.04000,
,,,8.120000000000,   0.04800,
,,,8.160000000000,   0.04800,
,,,8.200000000000,   0.04000,
,,,8.240000000000,   0.04800,
,,,8.280000000000,   0.04800,
,,,8.320000000000,   0.04800,
,,,8.360000000000,   0.04000,
,,,8.400000000000,   0.04800,
,,,8.440000000000,   0.04800,
,,,8.480000000000,   0.04800,
,,,8.520000000000,   0.04800,
,,,8.560000000000,   0.04800,
,,,8.600000000000,   0.04800,
,,,8.640000000000,   0.04000,
,,,8.680000000000,   0.04800,
,,,8.720000000000,   0.04800,
,,,8.760000000000,   0.04800,
,,,8.800000000000,   0.04800,
,,,8.840000000000,   0.04800,
,,,8.880000000000,   0.04800,
,,,8.920000000000,   0.04800,
,,,8.960000000000,   0.04800,
,,,9.000000000000,   0.04800,
,,,9.040000000000,   0.04800,
,,,9.080000000000,   0.04800,
,,,9.120000000000,   0.04800,
,,,9.160000000000,   0.04800,
,,,9.200000000000,   0.04800,
,,,9.240000000000,   0.04800,
,,,9.280000000000,   0.04800,
,,,9.320000000000,   0.04800,
,,,9.360000000000,   0.04800,
,,,9.400000000000,   0.04800,
,,,9.440000000000,   0.04800,
,,,9.480000000000,   0.04800,
,,,9.520000000000,   0.04800,
,,,9.560000000000,   0.04800,
,,,9.600000000000,   0.04800,
,,,9.640000000000,   0.05600,
,,,9.680000000000,   0.04800,
,,,9.720000000000,   0.05600,
,,,9.760000000000,   0.04800,
,,,9.800000000000,   0.04800,
,,,9.840000000000,   0.05600,
,,,9.880000000000,   0.05600,
,,,9.920000000000,   0.05600,
,,,9.960000000000,   0.04800,
,,,10.000000000000,   0.05600,
,,,10.040000000000,   0.04800,
,,,10.080000000000,   0.04800,
,,,10.120000000000,   0.05600,
,,,10.160000000000,   0.05600,
,,,10.200000000000,   0.05600,
,,,10.240000000000,   0.05600,
,,,10.280000000000,   0.05600,
,,,10.320000000000,   0.05600,
,,,10.360000000000,   0.05600,
,,,10.400000000000,   0.05600,
,,,10.440000000000,   0.05600,
,,,10.480000000000,   0.05600,
,,,10.520000000000,   0.05600,
,,,10.560000000000,   0.05600,
,,,10.600000000000,   0.06400,
,,,10.640000000000,   0.05600,
,,,10.680000000000,   0.05600,
,,,10.720000000000,   0.06400,
,,,10.760000000000,   0.05600,
,,,10.800000000000,   0.06400,
,,,10.840000000000,   0.05600,
,,,10.880000000000,   0.06400,
,,,10.920000000000,   0.05600,
,,,10.960000000000,   0.05600,
,,,11.000000000000,   0.05600,
,,,11.040000000000,   0.06400,
,,,11.080000000000,   0.04800,
,,,11.120000000000,   0.05600,
,,,11.160000000000,   0.06400,
,,,11.200000000000,   0.06400,
,,,11.240000000000,   0.05600,
,,,11.280000000000,   0.06400,
,,,11.320000000000,   0.06400,
,,,11.360000000000,   0.06400,
,,,11.400000000000,   0.06400,
,,,11.440000000000,   0.05600,
,,,11.480000000000,   0.05600,
,,,11.520000000000,   0.06400,
,,,11.560000000000,   0.06400,
,,,11.600000000000,   0.06400,
,,,11.640000000000,   0.05600,
,,,11.680000000000,   0.06400,
,,,11.720000000000,   0.05600,
,,,11.760000000000,   0.06400,
,,,11.800000000000,   0.06400,
,,,11.840000000000,   0.06400,
,,,11.880000000000,   0.06400,
,,,11.920000000000,   0.06400,
,,,11.960000000000,   0.06400,
,,,12.000000000000,   0.06400,
,,,12.040000000000,   0.06400,
,,,12.080000000000,   0.06400,
,,,12.120000000000,   0.06400,
,,,12.160000000000,   0.06400,
,,,12.200000000000,   0.06400,
,,,12.240000000000,   0.06400,
,,,12.280000000000,   0.07200,
,,,12.320000000000,   0.06400,
,,,12.360000000000,   0.06400,
,,,12.400000000000,   0.06400,
,,,12.440000000000,   0.06400,
,,,12.480000000000,   0.06400,
,,,12.520000000000,   0.07200,
,,,12.560000000000,   0.06400,
,,,12.600000000000,   0.06400,
,,,12.640000000000,   0.06400,
,,,12.680000000000,   0.07200,
,,,12.720000000000,   0.06400,
,,,12.760000000000,   0.07200,
,,,12.800000000000,   0.06400,
,,,12.840000000000,   0.07200,
,,,12.880000000000,   0.06400,
,,,12.920000000000,   0.06400,
,,,12.960000000000,   0.06400,
,,,13.000000000000,   0.07200,
,,,13.040000000000,   0.06400,
,,,13.080000000000,   0.07200,
,,,13.120000000000,   0.07200,
,,,13.160000000000,   0.06400,
,,,13.200000000000,   0.07200,
,,,13.240000000000,   0.07200,
,,,13.280000000000,   0.07200,
,,,13.320000000000,   0.07200,
,,,13.360000000000,   0.07200,
,,,13.400000000000,   0.07200,
,,,13.440000000000,   0.07200,
,,,13.480000000000,   0.07200,
,,,13.520000000000,   0.07200,
,,,13.560000000000,   0.06400,
,,,13.600000000000,   0.07200,
,,,13.640000000000,   0.07200,
,,,13.680000000000,   0.07200,
,,,13.720000000000,   0.06400,
,,,13.760000000000,   0.08000,
,,,13.800000000000,   0.07200,
,,,13.840000000000,   0.07200,
,,,13.880000000000,   0.07200,
,,,13.920000000000,   0.07200,
,,,13.960000000000,   0.07200,
,,,14.000000000000,   0.07200,
,,,14.040000000000,   0.07200,
,,,14.080000000000,   0.07200,
,,,14.120000000000,   0.07200,
,,,14.160000000000,   0.07200,
,,,14.200000000000,   0.07200,
,,,14.240000000000,   0.07200,
,,,14.280000000000,   0.07200,
,,,14.320000000000,   0.08000,
,,,14.360000000000,   0.08000,
,,,14.400000000000,   0.07200,
,,,14.440000000000,   0.08000,
,,,14.480000000000,   0.08000,
,,,14.520000000000,   0.08000,
,,,14.560000000000,   0.08000,
,,,14.600000000000,   0.08000,
,,,14.640000000000,   0.08000,
,,,14.680000000000,   0.08000,
,,,14.720000000000,   0.08000,
,,,14.760000000000,   0.08000,
,,,14.800000000000,   0.08000,
,,,14.840000000000,   0.08000,
,,,14.880000000000,   0.08000,
,,,14.920000000000,   0.08000,
,,,14.960000000000,   0.08000,
,,,15.000000000000,   0.08000,
,,,15.040000000000,   0.08000,
,,,15.080000000000,   0.08000,
,,,15.120000000000,   0.08000,
,,,15.160000000000,   0.08800,
,,,15.200000000000,   0.08000,
,,,15.240000000000,   0.08000,
,,,15.280000000000,   0.07200,
,,,15.320000000000,   0.08000,
,,,15.360000000000,   0.08800,
,,,15.400000000000,   0.08000,
,,,15.440000000000,   0.08000,
,,,15.480000000000,   0.08000,
,,,15.520000000000,   0.08000,
,,,15.560000000000,   0.08800,
,,,15.600000000000,   0.08000,
,,,15.640000000000,   0.08000,
,,,15.680000000000,   0.08000,
,,,15.720000000000,   0.08000,
,,,15.760000000000,   0.08000,
,,,15.800000000000,   0.08800,
,,,15.840000000000,   0.08000,
,,,15.880000000000,   0.08800,
,,,15.920000000000,   0.08000,
,,,15.960000000000,   0.08800,
,,,16.000000000000,   0.08800,
,,,16.040000000000,   0.08800,
,,,16.080000000000,   0.08800,
,,,16.120000000000,   0.08800,
,,,16.160000000000,   0.08800,
,,,16.200000000000,   0.08800,
,,,16.240000000000,   0.08000,
,,,16.280000000000,   0.08800,
,,,16.320000000000,   0.08800,
,,,16.360000000000,   0.08800,
,,,16.400000000000,   0.08800,
,,,16.440000000000,   0.08800,
,,,16.480000000000,   0.08800,
,,,16.520000000000,   0.08800,
,,,16.560000000000,   0.08800,
,,,16.600000000000,   0.09600,
,,,16.640000000000,   0.08800,
,,,16.680000000000,   0.08800,
,,,16.720000000000,   0.09600,
,,,16.760000000000,   0.08800,
,,,16.800000000000,   0.08800,
,,,16.840000000000,   0.08800,
,,,16.880000000000,   0.08800,
,,,16.920000000000,   0.09600,
,,,16.960000000000,   0.08800,
,,,17.000000000000,   0.08800,
,,,17.040000000000,   0.08800,
,,,17.080000000000,   0.08800,
,,,17.120000000000,   0.09600,
,,,17.160000000000,   0.09600,
,,,17.200000000000,   0.08800,
,,,17.240000000000,   0.09600,
,,,17.280000000000,   0.08800,
,,,17.320000000000,   0.08800,
,,,17.360000000000,   0.08800,
,,,17.400000000000,   0.09600,
,,,17.440000000000,   0.09600,
,,,17.480000000000,   0.09600,
,,,17.520000000000,   0.09600,
,,,17.560000000000,   0.08800,
,,,17.600000000000,   0.08800,
,,,17.640000000000,   0.09600,
,,,17.680000000000,   0.09600,
,,,17.720000000000,   0.08800,
,,,17.760000000000,   0.09600,
,,,17.800000000000,   0.08800,
,,,17.840000000000,   0.09600,
,,,17.880000000000,   0.08800,
,,,17.920000000000,   0.09600,
,,,17.960000000000,   0.08800,
,,,18.000000000000,   0.09600,
,,,18.040000000000,   0.09600,
,,,18.080000000000,   0.09600,
,,,18.120000000000,   0.09600,
,,,18.160000000000,   0.09600,
,,,18.200000000000,   0.09600,
,,,18.240000000000,   0.09600,
,,,18.280000000000,   0.09600,
,,,18.320000000000,   0.09600,
,,,18.360000000000,   0.09600,
,,,18.400000000000,   0.09600,
,,,18.440000000000,   0.09600,
,,,18.480000000000,   0.09600,
,,,18.520000000000,   0.09600,
,,,18.560000000000,   0.09600,
,,,18.600000000000,   0.09600,
,,,18.640000000000,   0.09600,
,,,18.680000000000,   0.10400,
,,,18.720000000000,   0.09600,
,,,18.760000000000,   0.09600,
,,,18.800000000000,   0.09600,
,,,18.840000000000,   0.09600,
,,,18.880000000000,   0.09600,
,,,18.920000000000,   0.09600,
,,,18.960000000000,   0.09600,
,,,19.000000000000,   0.09600,
,,,19.040000000000,   0.09600,
,,,19.080000000000,   0.09600,
,,,19.120000000000,   0.10400,
,,,19.160000000000,   0.10400,
,,,19.200000000000,   0.10400,
,,,19.240000000000,   0.10400,
,,,19.280000000000,   0.10400,
,,,19.320000000000,   0.10400,
,,,19.360000000000,   0.10400,
,,,19.400000000000,   0.10400,
,,,19.440000000000,   0.10400,
,,,19.480000000000,   0.10400,
,,,19.520000000000,   0.10400,
,,,19.560000000000,   0.10400,
,,,19.600000000000,   0.10400,
,,,19.640000000000,   0.09600,
,,,19.680000000000,   0.10400,
,,,19.720000000000,   0.10400,
,,,19.760000000000,   0.10400,
,,,19.800000000000,   0.10400,
,,,19.840000000000,   0.10400,
,,,19.880000000000,   0.10400,
,,,19.920000000000,   0.10400,
,,,19.960000000000,   0.11200,
,,,20.000000000000,   0.10400,
,,,20.040000000000,   0.10400,
,,,20.080000000000,   0.10400,
,,,20.120000000000,   0.11200,
,,,20.160000000000,   0.10400,
,,,20.200000000000,   0.10400,
,,,20.240000000000,   0.11200,
,,,20.280000000000,   0.10400,
,,,20.320000000000,   0.11200,
,,,20.360000000000,   0.10400,
,,,20.400000000000,   0.10400,
,,,20.440000000000,   0.10400,
,,,20.480000000000,   0.10400,
,,,20.520000000000,   0.11200,
,,,20.560000000000,   0.11200,
,,,20.600000000000,   0.10400,
,,,20.640000000000,   0.11200,
,,,20.680000000000,   0.10400,
,,,20.720000000000,   0.11200,
,,,20.760000000000,   0.11200,
,,,20.800000000000,   0.11200,
,,,20.840000000000,   0.10400,
,,,20.880000000000,   0.11200,
,,,20.920000000000,   0.11200,
,,,20.960000000000,   0.11200,
,,,21.000000000000,   0.11200,
,,,21.040000000000,   0.10400,
,,,21.080000000000,   0.11200,
,,,21.120000000000,   0.10400,
,,,21.160000000000,   0.11200,
,,,21.200000000000,   0.11200,
,,,21.240000000000,   0.11200,
,,,21.280000000000,   0.11200,
,,,21.320000000000,   0.11200,
,,,21.360000000000,   0.10400,
,,,21.400000000000,   0.11200,
,,,21.440000000000,   0.11200,
,,,21.480000000000,   0.11200,
,,,21.520000000000,   0.11200,
,,,21.560000000000,   0.12000,
,,,21.600000000000,   0.11200,
,,,21.640000000000,   0.11200,
,,,21.680000000000,   0.11200,
,,,21.720000000000,   0.11200,
,,,21.760000000000,   0.12000,
,,,21.800000000000,   0.11200,
,,,21.840000000000,   0.11200,
,,,21.880000000000,   0.12000,
,,,21.920000000000,   0.11200,
,,,21.960000000000,   0.12000,
,,,22.000000000000,   0.12000,
,,,22.040000000000,   0.12000,
,,,22.080000000000,   0.11200,
,,,22.120000000000,   0.11200,
,,,22.160000000000,   0.11200,
,,,22.200000000000,   0.12000,
,,,22.240000000000,   0.11200,
,,,22.280000000000,   0.12000,
,,,22.320000000000,   0.11200,
,,,22.360000000000,   0.12000,
,,,22.400000000000,   0.11200,
,,,22.440000000000,   0.12000,
,,,22.480000000000,   0.12000,
,,,22.520000000000,   0.12000,
,,,22.560000000000,   0.12000,
,,,22.600000000000,   0.12000,
,,,22.640000000000,   0.12000,
,,,22.680000000000,   0.12000,
,,,22.720000000000,   0.12000,
,,,22.760000000000,   0.11200,
,,,22.800000000000,   0.12800,
,,,22.840000000000,   0.12000,
,,,22.880000000000,   0.12000,
,,,22.920000000000,   0.12800,
,,,22.960000000000,   0.11200,
,,,23.000000000000,   0.12800,
,,,23.040000000000,   0.12000,
,,,23.080000000000,   0.12000,
,,,23.120000000000,   0.12000,
,,,23.160000000000,   0.12800,
,,,23.200000000000,   0.12000,
,,,23.240000000000,   0.12000,
,,,23.280000000000,   0.12000,
,,,23.320000000000,   0.12000,
,,,23.360000000000,   0.12800,
,,,23.400000000000,   0.12000,
,,,23.440000000000,   0.12000,
,,,23.480000000000,   0.12800,
,,,23.520000000000,   0.12000,
,,,23.560000000000,   0.12800,
,,,23.600000000000,   0.12800,
,,,23.640000000000,   0.12800,
,,,23.680000000000,   0.12800,
,,,23.720000000000,   0.12000,
,,,23.760000000000,   0.12800,
,,,23.800000000000,   0.12800,
,,,23.840000000000,   0.12800,
,,,23.880000000000,   0.12800,
,,,23.920000000000,   0.12800,
,,,23.960000000000,   0.12000,
,,,24.000000000000,   0.12800,
,,,24.040000000000,   0.12800,
,,,24.080000000000,   0.12000,
,,,24.120000000000,   0.12800,
,,,24.160000000000,   0.12800,
,,,24.200000000000,   0.12800,
,,,24.240000000000,   0.12800,
,,,24.280000000000,   0.12000,
,,,24.320000000000,   0.13600,
,,,24.360000000000,   0.12800,
,,,24.400000000000,   0.13600,
,,,24.440000000000,   0.13600,
,,,24.480000000000,   0.12800,
,,,24.520000000000,   0.12800,
,,,24.560000000000,   0.13600,
,,,24.600000000000,   0.13600,
,,,24.640000000000,   0.12800,
,,,24.680000000000,   0.12800,
,,,24.720000000000,   0.12800,
,,,24.760000000000,   0.13600,
,,,24.800000000000,   0.13600,
,,,24.840000000000,   0.12800,
,,,24.880000000000,   0.13600,
,,,24.920000000000,   0.12800,
,,,24.960000000000,   0.12800,
,,,25.000000000000,   0.12800,
,,,25.040000000000,   0.12800,
,,,25.080000000000,   0.13600,
,,,25.120000000000,   0.12800,
,,,25.160000000000,   0.12800,
,,,25.200000000000,   0.13600,
,,,25.240000000000,   0.13600,
,,,25.280000000000,   0.13600,
,,,25.320000000000,   0.12800,
,,,25.360000000000,   0.12800,
,,,25.400000000000,   0.13600,
,,,25.440000000000,   0.12800,
,,,25.480000000000,   0.13600,
,,,25.520000000000,   0.13600,
,,,25.560000000000,   0.13600,
,,,25.600000000000,   0.13600,
