OP/quadratic/ALL0027/F0027CH1.CSV

Record Length,2.500000e+03,,   0.000000000000,   0.00000,
Sample Interval,1.000000e-01,,   0.100000000000,   0.00000,
Trigger Point,0.000000000000e+00,,   0.200000000000,   0.00800,
,,,   0.300000000000,   0.00000,
,,,   0.400000000000,   0.00800,
,,,   0.500000000000,   0.00000,
Source,CH1,,   0.600000000000,   0.00000,
Vertical Units,V,,   0.700000000000,   0.00800,
Vertical Scale,2.000000e-01,,   0.800000000000,   0.00800,
Vertical Offset,-5.200000e-01,,   0.900000000000,   0.00800,
Horizontal Units,s,,   1.000000000000,   0.00800,
Horizontal Scale,2.500000e+01,,   1.100000000000,   0.00800,
Pt Fmt,Y,,   1.200000000000,   0.00800,
Yzero,0.000000e+00,,   1.300000000000,   0.00800,
Probe Atten,1.000000e+00,,   1.400000000000,   0.01600,
Model Number,TDS2012C,,   1.500000000000,   0.01600,
Serial Number,C018359,,   1.600000000000,   0.01600,
Firmware Version,FV:v24.17,,   1.700000000000,   0.00800,
,,,1.800000000000,   0.01600,
,,,1.900000000000,   0.01600,
,,,2.000000000000,   0.01600,
,,,2.100000000000,   0.01600,
,,,2.200000000000,   0.01600,
,,,2.300000000000,   0.02400,
,,,2.400000000000,   0.01600,
,,,2.500000000000,   0.01600,
,,,2.600000000000,   0.01600,
,,,2.700000000000,   0.02400,
,,,2.800000000000,   0.02400,
,,,2.900000000000,   0.02400,
,,,3.000000000000,   0.02400,
,,,3.100000000000,   0.02400,
,,,3.200000000000,   0.03200,
,,,3.300000000000,   0.03200,
,,,3.400000000000,   0.03200,
,,,3.500000000000,   0.03200,
,,,3.600000000000,   0.03200,
,,,3.700000000000,   0.03200,
,,,3.800000000000,   0.03200,
,,,3.900000000000,   0.03200,
,,,4.000000000000,   0.03200,
,,,4.100000000000,   0.04000,
,,,4.200000000000,   0.04000,
,,,4.300000000000,   0.04000,
,,,4.400000000000,   0.04000,
,,,4.500000000000,   0.04000,
,,,4.600000000000,   0.04000,
,,,4.700000000000,   0.04000,
,,,4.800000000000,   0.04000,
,,,4.900000000000,   0.04800,
,,,5.000000000000,   0.04800,
,,,5.100000000000,   0.04000,
,,,5.200000000000,   0.04800,
,,,5.300000000000,   0.04800,
,,,5.400000000000,   0.04800,
,,,5.500000000000,   0.04800,
,,,5.600000000000,   0.04800,
,,,5.700000000000,   0.04800,
,,,5.800000000000,   0.04800,
,,,5.900000000000,   0.04800,
,,,6.000000000000,   0.04800,
,,,6.100000000000,   0.04800,
,,,6.200000000000,   0.05600,
,,,6.300000000000,   0.05600,
,,,6.400000000000,   0.05600,
,,,6.500000000000,   0.05600,
,,,6.600000000000,   0.05600,
,,,6.700000000000,   0.05600,
,,,6.800000000000,   0.05600,
,,,6.900000000000,   0.05600,
,,,7.000000000000,   0.06400,
,,,7.100000000000,   0.05600,
,,,7.200000000000,   0.07200,
,,,7.300000000000,   0.07200,
,,,7.400000000000,   0.06400,
,,,7.500000000000,   0.07200,
,,,7.600000000000,   0.06400,
,,,7.700000000000,   0.06400,
,,,7.800000000000,   0.07200,
,,,7.900000000000,   0.07200,
,,,8.000000000000,   0.06400,
,,,8.100000000000,   0.08000,
,,,8.200000000000,   0.08000,
,,,8.300000000000,   0.08000,
,,,8.400000000000,   0.07200,
,,,8.500000000000,   0.07200,
,,,8.600000000000,   0.08000,
,,,8.700000000000,   0.07200,
,,,8.800000000000,   0.07200,
,,,8.900000000000,   0.08000,
,,,9.000000000000,   0.08000,
,,,9.100000000000,   0.08800,
,,,9.200000000000,   0.08800,
,,,9.300000000000,   0.08800,
,,,9.400000000000,   0.08800,
,,,9.500000000000,   0.08800,
,,,9.600000000000,   0.08800,
,,,9.700000000000,   0.08800,
,,,9.800000000000,   0.08800,
,,,9.900000000000,   0.08800,
,,,10.000000000000,   0.08800,
,,,10.100000000000,   0.08800,
,,,10.200000000000,   0.09600,
,,,10.300000000000,   0.09600,
,,,10.400000000000,   0.09600,
,,,10.500000000000,   0.09600,
,,,10.600000000000,   0.09600,
,,,10.700000000000,   0.09600,
,,,10.800000000000,   0.09600,
,,,10.900000000000,   0.10400,
,,,11.000000000000,   0.10400,
,,,11.100000000000,   0.10400,
,,,11.200000000000,   0.09600,
,,,11.300000000000,   0.10400,
,,,11.400000000000,   0.10400,
,,,11.500000000000,   0.10400,
,,,11.600000000000,   0.10400,
,,,11.700000000000,   0.10400,
,,,11.800000000000,   0.10400,
,,,11.900000000000,   0.10400,
,,,12.000000000000,   0.11200,
,,,12.100000000000,   0.11200,
,,,12.200000000000,   0.11200,
,,,12.300000000000,   0.12000,
,,,12.400000000000,   0.11200,
,,,12.500000000000,   0.11200,
,,,12.600000000000,   0.11200,
,,,12.700000000000,   0.10400,
,,,12.800000000000,   0.12000,
,,,12.900000000000,   0.12000,
,,,13.000000000000,   0.12000,
,,,13.100000000000,   0.12000,
,,,13.200000000000,   0.12000,
,,,13.300000000000,   0.12000,
,,,13.400000000000,   0.12000,
,,,13.500000000000,   0.12000,
,,,13.600000000000,   0.12800,
,,,13.700000000000,   0.12800,
,,,13.800000000000,   0.13600,
,,,13.900000000000,   0.12800,
,,,14.000000000000,   0.13600,
,,,14.100000000000,   0.12800,
,,,14.200000000000,   0.12800,
,,,14.300000000000,   0.12800,
,,,14.400000000000,   0.12800,
,,,14.500000000000,   0.13600,
,,,14.600000000000,   0.13600,
,,,14.700000000000,   0.13600,
,,,14.800000000000,   0.13600,
,,,14.900000000000,   0.14400,
,,,15.000000000000,   0.14400,
,,,15.100000000000,   0.14400,
,,,15.200000000000,   0.13600,
,,,15.300000000000,   0.14400,
,,,15.400000000000,   0.13600,
,,,15.500000000000,   0.14400,
,,,15.600000000000,   0.14400,
,,,15.700000000000,   0.15200,
,,,15.800000000000,   0.14400,
,,,15.900000000000,   0.15200,
,,,16.000000000000,   0.15200,
,,,16.100000000000,   0.15200,
,,,16.200000000000,   0.15200,
,,,16.300000000000,   0.15200,
,,,16.400000000000,   0.15200,
,,,16.500000000000,   0.16000,
,,,16.600000000000,   0.15200,
,,,16.700000000000,   0.16000,
,,,16.800000000000,   0.16000,
,,,16.900000000000,   0.16000,
,,,17.000000000000,   0.16000,
,,,17.100000000000,   0.16000,
,,,17.200000000000,   0.16800,
,,,17.300000000000,   0.16000,
,,,17.400000000000,   0.16000,
,,,17.500000000000,   0.16000,
,,,17.600000000000,   0.16800,
,,,17.700000000000,   0.16000,
,,,17.800000000000,   0.16800,
,,,17.900000000000,   0.16800,
,,,18.000000000000,   0.16800,
,,,18.100000000000,   0.16800,
,,,18.200000000000,   0.16800,
,,,18.300000000000,   0.17600,
,,,18.400000000000,   0.17600,
,,,18.500000000000,   0.17600,
,,,18.600000000000,   0.17600,
,,,18.700000000000,   0.17600,
,,,18.800000000000,   0.16800,
,,,18.900000000000,   0.17600,
,,,19.000000000000,   0.17600,
,,,19.100000000000,   0.17600,
,,,19.200000000000,   0.17600,
,,,19.300000000000,   0.18400,
,,,19.400000000000,   0.18400,
,,,19.500000000000,   0.17600,
,,,19.600000000000,   0.18400,
,,,19.700000000000,   0.17600,
,,,19.800000000000,   0.18400,
,,,19.900000000000,   0.18400,
,,,20.000000000000,   0.18400,
,,,20.100000000000,   0.19200,
,,,20.200000000000,   0.19200,
,,,20.300000000000,   0.19200,
,,,20.400000000000,   0.19200,
,,,20.500000000000,   0.18400,
,,,20.600000000000,   0.19200,
,,,20.700000000000,   0.19200,
,,,20.800000000000,   0.20000,
,,,20.900000000000,   0.20000,
,,,21.000000000000,   0.20000,
,,,21.100000000000,   0.20000,
,,,21.200000000000,   0.20000,
,,,21.300000000000,   0.20000,
,,,21.400000000000,   0.20000,
,,,21.500000000000,   0.20000,
,,,21.600000000000,   0.20000,
,,,21.700000000000,   0.20800,
,,,21.800000000000,   0.20800,
,,,21.900000000000,   0.20800,
,,,22.000000000000,   0.20800,
,,,22.100000000000,   0.20800,
,,,22.200000000000,   0.20800,
,,,22.300000000000,   0.20800,
,,,22.400000000000,   0.20800,
,,,22.500000000000,   0.20800,
,,,22.600000000000,   0.20800,
,,,22.700000000000,   0.20800,
,,,22.800000000000,   0.21600,
,,,22.900000000000,   0.20800,
,,,23.000000000000,   0.20800,
,,,23.100000000000,   0.22400,
,,,23.200000000000,   0.21600,
,,,23.300000000000,   0.21600,
,,,23.400000000000,   0.21600,
,,,23.500000000000,   0.21600,
,,,23.600000000000,   0.22400,
,,,23.700000000000,   0.22400,
,,,23.800000000000,   0.21600,
,,,23.900000000000,   0.21600,
,,,24.000000000000,   0.22400,
,,,24.100000000000,   0.23200,
,,,24.200000000000,   0.22400,
,,,24.300000000000,   0.23200,
,,,24.400000000000,   0.22400,
,,,24.500000000000,   0.23200,
,,,24.600000000000,   0.23200,
,,,24.700000000000,   0.22400,
,,,24.800000000000,   0.23200,
,,,24.900000000000,   0.23200,
,,,25.000000000000,   0.23200,
,,,25.100000000000,   0.24000,
,,,25.200000000000,   0.23200,
,,,25.300000000000,   0.23200,
,,,25.400000000000,   0.24000,
,,,25.500000000000,   0.24000,
,,,25.600000000000,   0.24000,
,,,25.700000000000,   0.24000,
,,,25.800000000000,   0.24000,
,,,25.900000000000,   0.24800,
,,,26.000000000000,   0.24000,
,,,26.100000000000,   0.24000,
,,,26.200000000000,   0.24800,
,,,26.300000000000,   0.24000,
,,,26.400000000000,   0.24800,
,,,26.500000000000,   0.24800,
,,,26.600000000000,   0.24800,
,,,26.700000000000,   0.24800,
,,,26.800000000000,   0.25600,
,,,26.900000000000,   0.25600,
,,,27.000000000000,   0.25600,
,,,27.100000000000,   0.25600,
,,,27.200000000000,   0.26400,
,,,27.300000000000,   0.25600,
,,,27.400000000000,   0.25600,
,,,27.500000000000,   0.25600,
,,,27.600000000000,   0.26400,
,,,27.700000000000,   0.26400,
,,,27.800000000000,   0.25600,
,,,27.900000000000,   0.25600,
,,,28.000000000000,   0.25600,
,,,28.100000000000,   0.26400,
,,,28.200000000000,   0.26400,
,,,28.300000000000,   0.26400,
,,,28.400000000000,   0.27200,
,,,28.500000000000,   0.26400,
,,,28.600000000000,   0.27200,
,,,28.700000000000,   0.27200,
,,,28.800000000000,   0.27200,
,,,28.900000000000,   0.27200,
,,,29.000000000000,   0.28000,
,,,29.100000000000,   0.28000,
,,,29.200000000000,   0.27200,
,,,29.300000000000,   0.27200,
,,,29.400000000000,   0.27200,
,,,29.500000000000,   0.28000,
,,,29.600000000000,   0.27200,
,,,29.700000000000,   0.28000,
,,,29.800000000000,   0.28000,
,,,29.900000000000,   0.28000,
,,,30.000000000000,   0.28800,
,,,30.100000000000,   0.28000,
,,,30.200000000000,   0.28000,
,,,30.300000000000,   0.28800,
,,,30.400000000000,   0.28800,
,,,30.500000000000,   0.28800,
,,,30.600000000000,   0.28800,
,,,30.700000000000,   0.28800,
,,,30.800000000000,   0.28800,
,,,30.900000000000,   0.29600,
,,,31.000000000000,   0.29600,
,,,31.100000000000,   0.28800,
,,,31.200000000000,   0.29600,
,,,31.300000000000,   0.28800,
,,,31.400000000000,   0.28800,
,,,31.500000000000,   0.30400,
,,,31.600000000000,   0.29600,
,,,31.700000000000,   0.30400,
,,,31.800000000000,   0.29600,
,,,31.900000000000,   0.29600,
,,,32.000000000000,   0.30400,
,,,32.100000000000,   0.30400,
,,,32.200000000000,   0.30400,
,,,32.300000000000,   0.30400,
,,,32.400000000000,   0.30400,
,,,32.500000000000,   0.30400,
,,,32.600000000000,   0.30400,
,,,32.700000000000,   0.30400,
,,,32.800000000000,   0.30400,
,,,32.900000000000,   0.31200,
,,,33.000000000000,   0.31200,
,,,33.100000000000,   0.31200,
,,,33.200000000000,   0.31200,
,,,33.300000000000,   0.31200,
,,,33.400000000000,   0.30400,
,,,33.500000000000,   0.32000,
,,,33.600000000000,   0.31200,
,,,33.700000000000,   0.32000,
,,,33.800000000000,   0.32800,
,,,33.900000000000,   0.32000,
,,,34.000000000000,   0.31200,
,,,34.100000000000,   0.32000,
,,,34.200000000000,   0.32000,
,,,34.300000000000,   0.32000,
,,,34.400000000000,   0.32800,
,,,34.500000000000,   0.32000,
,,,34.600000000000,   0.32000,
,,,34.700000000000,   0.32000,
,,,34.800000000000,   0.32000,
,,,34.900000000000,   0.32800,
,,,35.000000000000,   0.33600,
,,,35.100000000000,   0.32800,
,,,35.200000000000,   0.32800,
,,,35.300000000000,   0.32800,
,,,35.400000000000,   0.33600,
,,,35.500000000000,   0.32800,
,,,35.600000000000,   0.33600,
,,,35.700000000000,   0.33600,
,,,35.800000000000,   0.32800,
,,,35.900000000000,   0.34400,
,,,36.000000000000,   0.33600,
,,,36.100000000000,   0.33600,
,,,36.200000000000,   0.33600,
,,,36.300000000000,   0.33600,
,,,36.400000000000,   0.34400,
,,,36.500000000000,   0.33600,
,,,36.600000000000,   0.34400,
,,,36.700000000000,   0.35200,
,,,36.800000000000,   0.34400,
,,,36.900000000000,   0.34400,
,,,37.000000000000,   0.34400,
,,,37.100000000000,   0.34400,
,,,37.200000000000,   0.36000,
,,,37.300000000000,   0.35200,
,,,37.400000000000,   0.35200,
,,,37.500000000000,   0.35200,
,,,37.600000000000,   0.35200,
,,,37.700000000000,   0.35200,
,,,37.800000000000,   0.36000,
,,,37.900000000000,   0.35200,
,,,38.000000000000,   0.36000,
,,,38.100000000000,   0.36000,
,,,38.200000000000,   0.35200,
,,,38.300000000000,   0.36000,
,,,38.400000000000,   0.36000,
,,,38.500000000000,   0.36000,
,,,38.600000000000,   0.36800,
,,,38.700000000000,   0.36800,
,,,38.800000000000,   0.36800,
,,,38.900000000000,   0.36800,
,,,39.000000000000,   0.36800,
,,,39.100000000000,   0.36800,
,,,39.200000000000,   0.37600,
,,,39.300000000000,   0.37600,
,,,39.400000000000,   0.37600,
,,,39.500000000000,   0.37600,
,,,39.600000000000,   0.36800,
,,,39.700000000000,   0.36800,
,,,39.800000000000,   0.36800,
,,,39.900000000000,   0.37600,
,,,40.000000000000,   0.37600,
,,,40.100000000000,   0.37600,
,,,40.200000000000,   0.38400,
,,,40.300000000000,   0.37600,
,,,40.400000000000,   0.38400,
,,,40.500000000000,   0.38400,
,,,40.600000000000,   0.38400,
,,,40.700000000000,   0.39200,
,,,40.800000000000,   0.38400,
,,,40.900000000000,   0.39200,
,,,41.000000000000,   0.38400,
,,,41.100000000000,   0.38400,
,,,41.200000000000,   0.38400,
,,,41.300000000000,   0.40000,
,,,41.400000000000,   0.39200,
,,,41.500000000000,   0.39200,
,,,41.600000000000,   0.39200,
,,,41.700000000000,   0.39200,
,,,41.800000000000,   0.39200,
,,,41.900000000000,   0.40000,
,,,42.000000000000,   0.40000,
,,,42.100000000000,   0.40000,
,,,42.200000000000,   0.40000,
,,,42.300000000000,   0.40000,
,,,42.400000000000,   0.40000,
,,,42.500000000000,   0.39200,
,,,42.600000000000,   0.40000,
,,,42.700000000000,   0.40000,
,,,42.800000000000,   0.40800,
,,,42.900000000000,   0.40800,
,,,43.000000000000,   0.40800,
,,,43.100000000000,   0.40800,
,,,43.200000000000,   0.40800,
,,,43.300000000000,   0.40800,
,,,43.400000000000,   0.41600,
,,,43.500000000000,   0.41600,
,,,43.600000000000,   0.40800,
,,,43.700000000000,   0.40800,
,,,43.800000000000,   0.40800,
,,,43.900000000000,   0.40800,
,,,44.000000000000,   0.40800,
,,,44.100000000000,   0.41600,
,,,44.200000000000,   0.41600,
,,,44.300000000000,   0.42400,
,,,44.400000000000,   0.41600,
,,,44.500000000000,   0.40800,
,,,44.600000000000,   0.41600,
,,,44.700000000000,   0.41600,
,,,44.800000000000,   0.42400,
,,,44.900000000000,   0.41600,
,,,45.000000000000,   0.42400,
,,,45.100000000000,   0.42400,
,,,45.200000000000,   0.42400,
,,,45.300000000000,   0.43200,
,,,45.400000000000,   0.42400,
,,,45.500000000000,   0.43200,
,,,45.600000000000,   0.42400,
,,,45.700000000000,   0.43200,
,,,45.800000000000,   0.42400,
,,,45.900000000000,   0.44000,
,,,46.000000000000,   0.43200,
,,,46.100000000000,   0.43200,
,,,46.200000000000,   0.44000,
,,,46.300000000000,   0.43200,
,,,46.400000000000,   0.44000,
,,,46.500000000000,   0.44000,
,,,46.600000000000,   0.43200,
,,,46.700000000000,   0.44800,
,,,46.800000000000,   0.44000,
,,,46.900000000000,   0.44000,
,,,47.000000000000,   0.44000,
,,,47.100000000000,   0.44000,
,,,47.200000000000,   0.44800,
,,,47.300000000000,   0.44000,
,,,47.400000000000,   0.44800,
,,,47.500000000000,   0.45600,
,,,47.600000000000,   0.45600,
,,,47.700000000000,   0.44800,
,,,47.800000000000,   0.44800,
,,,47.900000000000,   0.44800,
,,,48.000000000000,   0.45600,
,,,48.100000000000,   0.45600,
,,,48.200000000000,   0.45600,
,,,48.300000000000,   0.45600,
,,,48.400000000000,   0.45600,
,,,48.500000000000,   0.45600,
,,,48.600000000000,   0.46400,
,,,48.700000000000,   0.45600,
,,,48.800000000000,   0.45600,
,,,48.900000000000,   0.46400,
,,,49.000000000000,   0.45600,
,,,49.100000000000,   0.45600,
,,,49.200000000000,   0.46400,
,,,49.300000000000,   0.46400,
,,,49.400000000000,   0.46400,
,,,49.500000000000,   0.47200,
,,,49.600000000000,   0.47200,
,,,49.700000000000,   0.47200,
,,,49.800000000000,   0.47200,
,,,49.900000000000,   0.47200,
,,,50.000000000000,   0.47200,
,,,50.100000000000,   0.47200,
,,,50.200000000000,   0.48000,
,,,50.300000000000,   0.48000,
,,,50.400000000000,   0.48000,
,,,50.500000000000,   0.48000,
,,,50.600000000000,   0.48800,
,,,50.700000000000,   0.47200,
,,,50.800000000000,   0.48000,
,,,50.900000000000,   0.48800,
,,,51.000000000000,   0.48000,
,,,51.100000000000,   0.48800,
,,,51.200000000000,   0.48000,
,,,51.300000000000,   0.48000,
,,,51.400000000000,   0.48800,
,,,51.500000000000,   0.48000,
,,,51.600000000000,   0.48800,
,,,51.700000000000,   0.49600,
,,,51.800000000000,   0.48000,
,,,51.900000000000,   0.48800,
,,,52.000000000000,   0.49600,
,,,52.100000000000,   0.48800,
,,,52.200000000000,   0.49600,
,,,52.300000000000,   0.48800,
,,,52.400000000000,   0.49600,
,,,52.500000000000,   0.48800,
,,,52.600000000000,   0.49600,
,,,52.700000000000,   0.49600,
,,,52.800000000000,   0.50400,
,,,52.900000000000,   0.49600,
,,,53.000000000000,   0.50400,
,,,53.100000000000,   0.49600,
,,,53.200000000000,   0.49600,
,,,53.300000000000,   0.50400,
,,,53.400000000000,   0.50400,
,,,53.500000000000,   0.50400,
,,,53.600000000000,   0.50400,
,,,53.700000000000,   0.51200,
,,,53.800000000000,   0.51200,
,,,53.900000000000,   0.50400,
,,,54.000000000000,   0.50400,
,,,54.100000000000,   0.51200,
,,,54.200000000000,   0.51200,
,,,54.300000000000,   0.51200,
,,,54.400000000000,   0.51200,
,,,54.500000000000,   0.51200,
,,,54.600000000000,   0.52000,
,,,54.700000000000,   0.51200,
,,,54.800000000000,   0.51200,
,,,54.900000000000,   0.52800,
,,,55.000000000000,   0.52000,
,,,55.100000000000,   0.52000,
,,,55.200000000000,   0.52000,
,,,55.300000000000,   0.52000,
,,,55.400000000000,   0.52800,
,,,55.500000000000,   0.52800,
,,,55.600000000000,   0.52800,
,,,55.700000000000,   0.52800,
,,,55.800000000000,   0.52800,
,,,55.900000000000,   0.52000,
,,,56.000000000000,   0.52800,
,,,56.100000000000,   0.52800,
,,,56.200000000000,   0.54400,
,,,56.300000000000,   0.53600,
,,,56.400000000000,   0.53600,
,,,56.500000000000,   0.52800,
,,,56.600000000000,   0.53600,
,,,56.700000000000,   0.53600,
,,,56.800000000000,   0.53600,
,,,56.900000000000,   0.54400,
,,,57.000000000000,   0.54400,
,,,57.100000000000,   0.53600,
,,,57.200000000000,   0.54400,
,,,57.300000000000,   0.53600,
,,,57.400000000000,   0.54400,
,,,57.500000000000,   0.54400,
,,,57.600000000000,   0.53600,
,,,57.700000000000,   0.54400,
,,,57.800000000000,   0.54400,
,,,57.900000000000,   0.54400,
,,,58.000000000000,   0.55200,
,,,58.100000000000,   0.54400,
,,,58.200000000000,   0.54400,
,,,58.300000000000,   0.56000,
,,,58.400000000000,   0.55200,
,,,58.500000000000,   0.55200,
,,,58.600000000000,   0.55200,
,,,58.700000000000,   0.56000,
,,,58.800000000000,   0.56000,
,,,58.900000000000,   0.56000,
,,,59.000000000000,   0.55200,
,,,59.100000000000,   0.55200,
,,,59.200000000000,   0.55200,
,,,59.300000000000,   0.55200,
,,,59.400000000000,   0.56000,
,,,59.500000000000,   0.56800,
,,,59.600000000000,   0.56000,
,,,59.700000000000,   0.56000,
,,,59.800000000000,   0.56000,
,,,59.900000000000,   0.56000,
,,,60.000000000000,   0.56800,
,,,60.100000000000,   0.56800,
,,,60.200000000000,   0.56800,
,,,60.300000000000,   0.56800,
,,,60.400000000000,   0.56800,
,,,60.500000000000,   0.56800,
,,,60.600000000000,   0.57600,
,,,60.700000000000,   0.56800,
,,,60.800000000000,   0.56800,
,,,60.900000000000,   0.57600,
,,,61.000000000000,   0.57600,
,,,61.100000000000,   0.57600,
,,,61.200000000000,   0.57600,
,,,61.300000000000,   0.58400,
,,,61.400000000000,   0.58400,
,,,61.500000000000,   0.57600,
,,,61.600000000000,   0.58400,
,,,61.700000000000,   0.58400,
,,,61.800000000000,   0.57600,
,,,61.900000000000,   0.59200,
,,,62.000000000000,   0.58400,
,,,62.100000000000,   0.59200,
,,,62.200000000000,   0.58400,
,,,62.300000000000,   0.59200,
,,,62.400000000000,   0.59200,
,,,62.500000000000,   0.58400,
,,,62.600000000000,   0.60000,
,,,62.700000000000,   0.59200,
,,,62.800000000000,   0.58400,
,,,62.900000000000,   0.60000,
,,,63.000000000000,   0.59200,
,,,63.100000000000,   0.60000,
,,,63.200000000000,   0.60000,
,,,63.300000000000,   0.59200,
,,,63.400000000000,   0.60000,
,,,63.500000000000,   0.60000,
